%YAML 1.1
%TAG !u! tag:unity3d.com,2011:
--- !u!74 &7400000
AnimationClip:
  m_ObjectHideFlags: 0
  m_CorrespondingSourceObject: {fileID: 0}
  m_PrefabInstance: {fileID: 0}
  m_PrefabAsset: {fileID: 0}
  m_Name: GainStonks
  serializedVersion: 6
  m_Legacy: 0
  m_Compressed: 0
  m_UseHighQualityCurve: 1
  m_RotationCurves: []
  m_CompressedRotationCurves: []
  m_EulerCurves: []
  m_PositionCurves: []
  m_ScaleCurves: []
  m_FloatCurves: []
  m_PPtrCurves:
  - curve:
    - time: 0
      value: {fileID: 21300000, guid: f0b44dcbb16d9774d8988b3761b0871e, type: 3}
    - time: 0.05
      value: {fileID: 21300000, guid: 1ed187fb7e68bfa49bdefb7c9b109363, type: 3}
    - time: 0.1
      value: {fileID: 21300000, guid: 1a1158daf9f14e84ab1f7b9b4cb25eed, type: 3}
    - time: 0.15
      value: {fileID: 21300000, guid: 976d2c28da073ca4d8c4598090b89d24, type: 3}
    - time: 0.2
      value: {fileID: 21300000, guid: 1381a95d11a615048a4b27994eee3161, type: 3}
    - time: 0.25
      value: {fileID: 21300000, guid: 413ffd0ac5ba78a4ea18acd1fa56981b, type: 3}
    - time: 0.3
      value: {fileID: 21300000, guid: 1913cc2da9eb5874f9791997bec8a564, type: 3}
    - time: 0.35
      value: {fileID: 21300000, guid: ee73ab7199999c945a02833cdc95035a, type: 3}
    - time: 0.4
      value: {fileID: 21300000, guid: bcd93da2392101d4ba6158a057b8dd80, type: 3}
    - time: 0.45
      value: {fileID: 21300000, guid: 27beb5911b619a64490b87efbc8bd1bf, type: 3}
    - time: 0.5
      value: {fileID: 21300000, guid: 7235142a99802904a925567f6d5abe37, type: 3}
    - time: 0.55
      value: {fileID: 21300000, guid: 1a079c9a158383849bfac78acd745d89, type: 3}
    attribute: m_Sprite
    path: 
    classID: 212
    script: {fileID: 0}
  m_SampleRate: 60
  m_WrapMode: 0
  m_Bounds:
    m_Center: {x: 0, y: 0, z: 0}
    m_Extent: {x: 0, y: 0, z: 0}
  m_ClipBindingConstant:
    genericBindings:
    - serializedVersion: 2
      path: 0
      attribute: 0
      script: {fileID: 0}
      typeID: 212
      customType: 23
      isPPtrCurve: 1
    pptrCurveMapping:
    - {fileID: 21300000, guid: f0b44dcbb16d9774d8988b3761b0871e, type: 3}
    - {fileID: 21300000, guid: 1ed187fb7e68bfa49bdefb7c9b109363, type: 3}
    - {fileID: 21300000, guid: 1a1158daf9f14e84ab1f7b9b4cb25eed, type: 3}
    - {fileID: 21300000, guid: 976d2c28da073ca4d8c4598090b89d24, type: 3}
    - {fileID: 21300000, guid: 1381a95d11a615048a4b27994eee3161, type: 3}
    - {fileID: 21300000, guid: 413ffd0ac5ba78a4ea18acd1fa56981b, type: 3}
    - {fileID: 21300000, guid: 1913cc2da9eb5874f9791997bec8a564, type: 3}
    - {fileID: 21300000, guid: ee73ab7199999c945a02833cdc95035a, type: 3}
    - {fileID: 21300000, guid: bcd93da2392101d4ba6158a057b8dd80, type: 3}
    - {fileID: 21300000, guid: 27beb5911b619a64490b87efbc8bd1bf, type: 3}
    - {fileID: 21300000, guid: 7235142a99802904a925567f6d5abe37, type: 3}
    - {fileID: 21300000, guid: 1a079c9a158383849bfac78acd745d89, type: 3}
  m_AnimationClipSettings:
    serializedVersion: 2
    m_AdditiveReferencePoseClip: {fileID: 0}
    m_AdditiveReferencePoseTime: 0
    m_StartTime: 0
    m_StopTime: 0.56666666
    m_OrientationOffsetY: 0
    m_Level: 0
    m_CycleOffset: 0
    m_HasAdditiveReferencePose: 0
    m_LoopTime: 1
    m_LoopBlend: 0
    m_LoopBlendOrientation: 0
    m_LoopBlendPositionY: 0
    m_LoopBlendPositionXZ: 0
    m_KeepOriginalOrientation: 0
    m_KeepOriginalPositionY: 1
    m_KeepOriginalPositionXZ: 0
    m_HeightFromFeet: 0
    m_Mirror: 0
  m_EditorCurves: []
  m_EulerEditorCurves: []
  m_HasGenericRootTransform: 0
  m_HasMotionFloatCurves: 0
  m_Events:
  - time: 0
    functionName: 
    data: 
    objectReferenceParameter: {fileID: 0}
    floatParameter: 0
    intParameter: 0
    messageOptions: 0
  - time: 0
    functionName: 
    data: 
    objectReferenceParameter: {fileID: 0}
    floatParameter: 0
    intParameter: 0
    messageOptions: 0
